{"project_id":"ba0c4636-817c-423b-9771-20100e080b76","pipeline_run_id":null,"events":[{"id":"9ba51706-0e38-457a-894f-799113f228cc","project_id":"ba0c4636-817c-423b-9771-20100e080b76","pipeline_run_id":"7e8699d1-35c6-4135-9a2b-404a737ad622","event_type":"PIPELINE_STARTED","model_id":null,"payload":{"task_queue":"aimpos-spark-pipeline","workflow_id":"spark-pipeline-7e8699d1-35c6-4135-9a2b-404a737ad622"},"created_at":"2026-06-10T18:13:50.858908"},{"id":"8819164c-2328-4197-bfa3-42f3906e3e85","project_id":"ba0c4636-817c-423b-9771-20100e080b76","pipeline_run_id":"7e8699d1-35c6-4135-9a2b-404a737ad622","event_type":"STAGE_STARTED","model_id":null,"payload":{"agent":"agent.story_architect","stage":"STORY"},"created_at":"2026-06-10T18:13:50.993824"},{"id":"9734aa58-f350-4746-9887-1ed1dc21c1ea","project_id":"ba0c4636-817c-423b-9771-20100e080b76","pipeline_run_id":"7e8699d1-35c6-4135-9a2b-404a737ad622","event_type":"AGENT_TASK_COMPLETED","model_id":"qwen3:14b","payload":{"agent":"agent.story_architect","branch":"ai-draft","minio_key":"ba0c4636-817c-423b-9771-20100e080b76/STORY/52f69b19da0449b4af5ea72d96e11916b72f741c18c88e6369b9ae7c395d6e58","duration_ms":18182,"prompt_version":"v1","asset_version_id":"b87c4c5b-1f66-4699-b07c-f6c43d408723"},"created_at":"2026-06-10T18:14:09.214132"},{"id":"c7e031c6-0ac2-4432-822b-6369d208c725","project_id":"ba0c4636-817c-423b-9771-20100e080b76","pipeline_run_id":"7e8699d1-35c6-4135-9a2b-404a737ad622","event_type":"ASSET_STORED","model_id":"qwen3:14b","payload":{"stage":"STORY","branch":"ai-draft","version":1,"content_hash":"52f69b19da0449b4af5ea72d96e11916b72f741c18c88e6369b9ae7c395d6e58"},"created_at":"2026-06-10T18:14:09.221975"},{"id":"9cb8d9fd-38d3-4c86-ad23-af509356a780","project_id":"ba0c4636-817c-423b-9771-20100e080b76","pipeline_run_id":"7e8699d1-35c6-4135-9a2b-404a737ad622","event_type":"ASSET_STORED","model_id":null,"payload":{"stage":"STORY","branch":"human-edit","content_hash":"a469cbdb2b9b31901ec56fd7d1cc673f8aa2f7bb13fba30a2ece2e6204e0fd35","source_asset_id":"b87c4c5b-1f66-4699-b07c-f6c43d408723","asset_version_id":"d02b1e64-4d71-44dd-b0a1-8fddd078310a"},"created_at":"2026-06-10T20:14:23.795776"},{"id":"933b7958-08db-4973-b2be-b7a38d6ad5e7","project_id":"ba0c4636-817c-423b-9771-20100e080b76","pipeline_run_id":"7e8699d1-35c6-4135-9a2b-404a737ad622","event_type":"APPROVAL_RECORDED","model_id":null,"payload":{"note":"US-13 Olares verify: treatment needs stronger third act.","stage":"STORY","decision":"REJECTED","principal":"api-bearer-token","approval_id":"62e1bc50-9120-4f7f-b716-cef32144767e"},"created_at":"2026-06-10T20:14:24.094777"},{"id":"1f738ba6-ae65-46c7-853b-f61ac7c297ab","project_id":"ba0c4636-817c-423b-9771-20100e080b76","pipeline_run_id":"7e8699d1-35c6-4135-9a2b-404a737ad622","event_type":"APPROVAL_RECORDED","model_id":null,"payload":{"note":null,"stage":"STORY","decision":"APPROVED","principal":"api-bearer-token","approval_id":"2a6dcf29-94f9-424d-98e2-b6ea9b2e79e3"},"created_at":"2026-06-10T20:14:24.521819"},{"id":"99b120c4-6412-49ae-98c0-dd3d9b212162","project_id":"ba0c4636-817c-423b-9771-20100e080b76","pipeline_run_id":"7e8699d1-35c6-4135-9a2b-404a737ad622","event_type":"APPROVAL_RECORDED","model_id":null,"payload":{"note":null,"stage":"SCRIPT","decision":"APPROVED","principal":"api-bearer-token","approval_id":"a5baae1f-ee1d-4683-a687-1f27b6fa38a2"},"created_at":"2026-06-10T20:15:09.451335"},{"id":"e74e26b8-5c0e-4c27-9666-bf856c6db44a","project_id":"ba0c4636-817c-423b-9771-20100e080b76","pipeline_run_id":"7e8699d1-35c6-4135-9a2b-404a737ad622","event_type":"APPROVAL_RECORDED","model_id":null,"payload":{"note":null,"stage":"STORYBOARD","decision":"APPROVED","principal":"api-bearer-token","approval_id":"fcee9d25-0948-4872-81cd-3001f8e0c3ce"},"created_at":"2026-06-10T20:15:11.480517"},{"id":"6ed804ff-51ba-4679-910f-c39c1c57a285","project_id":"ba0c4636-817c-423b-9771-20100e080b76","pipeline_run_id":"8c35926c-0a4e-44ed-ac5a-ea3c178902cd","event_type":"PIPELINE_STARTED","model_id":null,"payload":{"task_queue":"aimpos-spark-pipeline","workflow_id":"spark-pipeline-8c35926c-0a4e-44ed-ac5a-ea3c178902cd"},"created_at":"2026-06-10T20:15:13.583995"},{"id":"605d5f0f-e278-44db-824d-95e4b5e7fc2b","project_id":"ba0c4636-817c-423b-9771-20100e080b76","pipeline_run_id":"8c35926c-0a4e-44ed-ac5a-ea3c178902cd","event_type":"STAGE_STARTED","model_id":null,"payload":{"agent":"agent.story_architect","stage":"STORY"},"created_at":"2026-06-10T20:15:13.650236"},{"id":"aadb8e4f-f1f3-407e-a20c-7241a694598a","project_id":"ba0c4636-817c-423b-9771-20100e080b76","pipeline_run_id":"8c35926c-0a4e-44ed-ac5a-ea3c178902cd","event_type":"AGENT_TASK_COMPLETED","model_id":"qwen3:14b","payload":{"agent":"agent.story_architect","branch":"ai-draft","minio_key":"ba0c4636-817c-423b-9771-20100e080b76/STORY/aa917060dd662003eaafc4cce2da8c0cf16656390d3bd63c2ef0d8532698527b","duration_ms":18708,"prompt_version":"v1","asset_version_id":"c6a43261-ca37-413a-8fc0-2ec20448b460"},"created_at":"2026-06-10T20:15:32.395470"},{"id":"7e7c63af-7a0b-4dac-9f6d-c0e9905cae19","project_id":"ba0c4636-817c-423b-9771-20100e080b76","pipeline_run_id":"8c35926c-0a4e-44ed-ac5a-ea3c178902cd","event_type":"ASSET_STORED","model_id":"qwen3:14b","payload":{"stage":"STORY","branch":"ai-draft","version":3,"content_hash":"aa917060dd662003eaafc4cce2da8c0cf16656390d3bd63c2ef0d8532698527b"},"created_at":"2026-06-10T20:15:32.401920"},{"id":"ae9d7177-6edc-4486-aee3-b655eb0efa39","project_id":"ba0c4636-817c-423b-9771-20100e080b76","pipeline_run_id":"8c35926c-0a4e-44ed-ac5a-ea3c178902cd","event_type":"APPROVAL_RECORDED","model_id":null,"payload":{"note":"US-13 Olares UI verify: third act needs more emotional payoff.","stage":"STORY","decision":"REJECTED","principal":"api-bearer-token","approval_id":"0f415d6d-0d6b-4c62-9d4f-b27086875c68"},"created_at":"2026-06-10T21:33:18.733552"},{"id":"98f50dbe-5336-4e73-ad70-23570be7d52d","project_id":"ba0c4636-817c-423b-9771-20100e080b76","pipeline_run_id":"8c35926c-0a4e-44ed-ac5a-ea3c178902cd","event_type":"APPROVAL_RECORDED","model_id":null,"payload":{"note":"US-09 Olares verify: deepen Act III.","stage":"STORY","decision":"REJECTED","principal":"api-bearer-token","approval_id":"44969fec-0fbf-4747-9a42-7fa0bc007e03"},"created_at":"2026-06-10T22:32:16.288572"},{"id":"c8d75ac9-0072-4152-ba95-87705776144c","project_id":"ba0c4636-817c-423b-9771-20100e080b76","pipeline_run_id":"8c35926c-0a4e-44ed-ac5a-ea3c178902cd","event_type":"REGENERATION_REQUESTED","model_id":null,"payload":{"stage":"STORY","principal":"api-bearer-token","rejection_approval_id":"44969fec-0fbf-4747-9a42-7fa0bc007e03"},"created_at":"2026-06-10T22:32:16.850198"},{"id":"24aa254b-e852-4b44-aa5c-ab9c40060269","project_id":"ba0c4636-817c-423b-9771-20100e080b76","pipeline_run_id":"8c35926c-0a4e-44ed-ac5a-ea3c178902cd","event_type":"STAGE_STARTED","model_id":null,"payload":{"agent":"agent.story_architect","stage":"STORY"},"created_at":"2026-06-10T22:32:16.963494"},{"id":"e4b3265e-6932-4ab0-a548-09d32ca31293","project_id":"ba0c4636-817c-423b-9771-20100e080b76","pipeline_run_id":"8c35926c-0a4e-44ed-ac5a-ea3c178902cd","event_type":"AGENT_TASK_COMPLETED","model_id":"qwen3:14b","payload":{"agent":"agent.story_architect","branch":"ai-draft","minio_key":"ba0c4636-817c-423b-9771-20100e080b76/STORY/104891e54b19011cc26be0d6e1b703dbbf8315b4ee164ed00d0bf2a822f9a835","duration_ms":19146,"prompt_version":"v1","asset_version_id":"b736740b-137e-4942-9151-1f44fbf500e6"},"created_at":"2026-06-10T22:32:36.149130"},{"id":"36033a81-822e-45d8-8a87-fbe9d43a972b","project_id":"ba0c4636-817c-423b-9771-20100e080b76","pipeline_run_id":"8c35926c-0a4e-44ed-ac5a-ea3c178902cd","event_type":"ASSET_STORED","model_id":"qwen3:14b","payload":{"stage":"STORY","branch":"ai-draft","version":4,"content_hash":"104891e54b19011cc26be0d6e1b703dbbf8315b4ee164ed00d0bf2a822f9a835"},"created_at":"2026-06-10T22:32:36.155995"},{"id":"f176722c-0d48-4c0b-bb97-87abdd73ff5b","project_id":"ba0c4636-817c-423b-9771-20100e080b76","pipeline_run_id":"8c35926c-0a4e-44ed-ac5a-ea3c178902cd","event_type":"REGENERATION_REQUESTED","model_id":null,"payload":{"stage":"STORY","principal":"api-bearer-token","rejection_approval_id":"44969fec-0fbf-4747-9a42-7fa0bc007e03"},"created_at":"2026-06-10T22:32:47.664345"}],"total":891,"limit":20,"offset":0,"has_more":true}