{"project_id":"ba0c4636-817c-423b-9771-20100e080b76","pipeline_run_id":"e5da4992-226c-4969-b95d-e7a2c6415b30","events":[{"id":"15f6f055-de25-49c4-b840-87c33c5012be","project_id":"ba0c4636-817c-423b-9771-20100e080b76","pipeline_run_id":"e5da4992-226c-4969-b95d-e7a2c6415b30","event_type":"PIPELINE_STARTED","model_id":null,"payload":{"task_queue":"aimpos-spark-pipeline","workflow_id":"spark-pipeline-e5da4992-226c-4969-b95d-e7a2c6415b30"},"created_at":"2026-06-15T06:29:32.121694"},{"id":"f6e21675-8230-4b0b-8ba4-7427c5396ffd","project_id":"ba0c4636-817c-423b-9771-20100e080b76","pipeline_run_id":"e5da4992-226c-4969-b95d-e7a2c6415b30","event_type":"STAGE_STARTED","model_id":null,"payload":{"agent":"agent.story_architect","stage":"STORY"},"created_at":"2026-06-15T06:29:32.229025"},{"id":"9a0a7ee9-21d4-4edc-9b25-bacca5ae4979","project_id":"ba0c4636-817c-423b-9771-20100e080b76","pipeline_run_id":"e5da4992-226c-4969-b95d-e7a2c6415b30","event_type":"AGENT_TASK_COMPLETED","model_id":"qwen3:14b","payload":{"agent":"agent.story_architect","branch":"ai-draft","minio_key":"ba0c4636-817c-423b-9771-20100e080b76/STORY/b7305b3b8f10e21c817662143e553b6628ee2329de2d62575802bd1cf47fb2a5","duration_ms":21129,"prompt_version":"v1","asset_version_id":"44c9ac35-89e3-493b-a59c-d8bd0508e1cb"},"created_at":"2026-06-15T06:29:53.408596"},{"id":"a7a7262e-2135-4ad9-a265-f7d4801d8f8f","project_id":"ba0c4636-817c-423b-9771-20100e080b76","pipeline_run_id":"e5da4992-226c-4969-b95d-e7a2c6415b30","event_type":"ASSET_STORED","model_id":"qwen3:14b","payload":{"stage":"STORY","branch":"ai-draft","version":15,"content_hash":"b7305b3b8f10e21c817662143e553b6628ee2329de2d62575802bd1cf47fb2a5"},"created_at":"2026-06-15T06:29:53.416394"},{"id":"b9d30286-f646-403c-8790-7ca6677e75cc","project_id":"ba0c4636-817c-423b-9771-20100e080b76","pipeline_run_id":"e5da4992-226c-4969-b95d-e7a2c6415b30","event_type":"APPROVAL_RECORDED","model_id":null,"payload":{"note":null,"stage":"STORY","decision":"APPROVED","principal":"api-bearer-token","approval_id":"f7e67ee8-a711-4cb6-95b9-da5688c2dd75"},"created_at":"2026-06-15T06:32:17.717775"},{"id":"a24f1c7b-698a-4ee4-a919-2eec457e0a0a","project_id":"ba0c4636-817c-423b-9771-20100e080b76","pipeline_run_id":"e5da4992-226c-4969-b95d-e7a2c6415b30","event_type":"STAGE_STARTED","model_id":null,"payload":{"agent":"agent.screenwriter","stage":"SCRIPT"},"created_at":"2026-06-15T06:32:17.792721"},{"id":"d6ef4685-0c9e-4510-b14c-854a17ef3d0f","project_id":"ba0c4636-817c-423b-9771-20100e080b76","pipeline_run_id":"e5da4992-226c-4969-b95d-e7a2c6415b30","event_type":"AGENT_TASK_COMPLETED","model_id":"qwen3:14b","payload":{"agent":"agent.screenwriter","branch":"ai-draft","minio_key":"ba0c4636-817c-423b-9771-20100e080b76/SCRIPT/9f349ff445def7179f4db942327e0edd2558f2659f9425900926d39ac29f23f6","duration_ms":13956,"prompt_version":"v1","asset_version_id":"e255b363-6355-49d6-864e-488c9d70e085"},"created_at":"2026-06-15T06:32:31.800343"},{"id":"7ec228a5-ccf4-40ff-bd23-43029362c32b","project_id":"ba0c4636-817c-423b-9771-20100e080b76","pipeline_run_id":"e5da4992-226c-4969-b95d-e7a2c6415b30","event_type":"ASSET_STORED","model_id":"qwen3:14b","payload":{"stage":"SCRIPT","branch":"ai-draft","version":10,"content_hash":"9f349ff445def7179f4db942327e0edd2558f2659f9425900926d39ac29f23f6"},"created_at":"2026-06-15T06:32:31.810354"},{"id":"27cead09-be41-4148-9f71-b0f8280cfd57","project_id":"ba0c4636-817c-423b-9771-20100e080b76","pipeline_run_id":"e5da4992-226c-4969-b95d-e7a2c6415b30","event_type":"APPROVAL_RECORDED","model_id":null,"payload":{"note":null,"stage":"SCRIPT","decision":"APPROVED","principal":"api-bearer-token","approval_id":"a658139d-0027-4e6e-a0d4-a485dec18087"},"created_at":"2026-06-15T06:32:41.343904"},{"id":"3285532e-b0b0-4e2d-86e5-8a0fd63cc13c","project_id":"ba0c4636-817c-423b-9771-20100e080b76","pipeline_run_id":"e5da4992-226c-4969-b95d-e7a2c6415b30","event_type":"STAGE_STARTED","model_id":null,"payload":{"agent":"agent.cinematography","stage":"STORYBOARD"},"created_at":"2026-06-15T06:32:41.402400"},{"id":"327688ff-004b-42be-a756-96a80f3222c0","project_id":"ba0c4636-817c-423b-9771-20100e080b76","pipeline_run_id":"e5da4992-226c-4969-b95d-e7a2c6415b30","event_type":"AGENT_TASK_COMPLETED","model_id":"qwen3:14b","payload":{"agent":"agent.cinematography","branch":"ai-draft","duration_ms":10935,"frame_count":4,"prompt_version":"v1","frame_asset_version_ids":["c6e5054c-df89-4b31-bd7e-26cc30462a12","4b1abac1-5339-4019-b41c-9fca690e0057","814f21f3-df25-49f0-8929-b5882df12ad6","659e757d-c4d9-46ef-bfa2-42e2a24cc995"]},"created_at":"2026-06-15T06:33:33.118824"},{"id":"d0c00f6c-5d44-4927-82cc-199b37afd453","project_id":"ba0c4636-817c-423b-9771-20100e080b76","pipeline_run_id":"e5da4992-226c-4969-b95d-e7a2c6415b30","event_type":"ASSET_STORED","model_id":"qwen3:14b","payload":{"stage":"STORYBOARD","branch":"ai-draft","version":5,"frame_index":1,"content_hash":"b4ff80da92618442008a43c15a71c2bf94de4b91680c0a5e713e575b4e397ae3"},"created_at":"2026-06-15T06:33:33.126848"},{"id":"4d8f0a4a-0eda-4088-8a1b-58d7cb404314","project_id":"ba0c4636-817c-423b-9771-20100e080b76","pipeline_run_id":"e5da4992-226c-4969-b95d-e7a2c6415b30","event_type":"ASSET_STORED","model_id":"qwen3:14b","payload":{"stage":"STORYBOARD","branch":"ai-draft","version":5,"frame_index":2,"content_hash":"4b6f94454711339736d2978d233baf254a69700e945b058a8307fdb7c6fd8a35"},"created_at":"2026-06-15T06:33:33.132964"},{"id":"683bd13a-cc92-42e9-98bb-8e588652f732","project_id":"ba0c4636-817c-423b-9771-20100e080b76","pipeline_run_id":"e5da4992-226c-4969-b95d-e7a2c6415b30","event_type":"ASSET_STORED","model_id":"qwen3:14b","payload":{"stage":"STORYBOARD","branch":"ai-draft","version":5,"frame_index":3,"content_hash":"00231747aa025a826d32bdc6e8200b2641a3199cb4e27d1e4ba01e2d2f8101ee"},"created_at":"2026-06-15T06:33:33.139829"},{"id":"013440bb-1118-4f6d-ae03-a51b12acf90a","project_id":"ba0c4636-817c-423b-9771-20100e080b76","pipeline_run_id":"e5da4992-226c-4969-b95d-e7a2c6415b30","event_type":"ASSET_STORED","model_id":"qwen3:14b","payload":{"stage":"STORYBOARD","branch":"ai-draft","version":5,"frame_index":4,"content_hash":"4c0d12802ce0a2174c185968bcad79834a0b109d432e7bf790c03b4e9f63b8b9"},"created_at":"2026-06-15T06:33:33.148025"},{"id":"4a973986-4b60-4f9a-96f4-a5562298ef45","project_id":"ba0c4636-817c-423b-9771-20100e080b76","pipeline_run_id":"e5da4992-226c-4969-b95d-e7a2c6415b30","event_type":"APPROVAL_RECORDED","model_id":null,"payload":{"note":null,"stage":"STORYBOARD","decision":"APPROVED","principal":"api-bearer-token","approval_id":"c94442f7-addf-4772-b2fa-8f822f881b81"},"created_at":"2026-06-15T06:34:07.356597"},{"id":"921d5404-720c-4756-893c-7820c527b75b","project_id":"ba0c4636-817c-423b-9771-20100e080b76","pipeline_run_id":"e5da4992-226c-4969-b95d-e7a2c6415b30","event_type":"STAGE_STARTED","model_id":null,"payload":{"agent":"agent.video_generator","stage":"VIDEO"},"created_at":"2026-06-15T06:34:07.418934"},{"id":"7a6eaac2-4a6c-4fab-8b8c-ff64775a54a5","project_id":"ba0c4636-817c-423b-9771-20100e080b76","pipeline_run_id":"e5da4992-226c-4969-b95d-e7a2c6415b30","event_type":"AGENT_TASK_COMPLETED","model_id":null,"payload":{"agent":"agent.video_generator","stage":"VIDEO","source":"slideshow","version":2,"duration_sec":20.0,"rejection_note":null},"created_at":"2026-06-15T06:34:08.490810"},{"id":"25bd5101-b7f7-43ab-a134-bae4d0d924a9","project_id":"ba0c4636-817c-423b-9771-20100e080b76","pipeline_run_id":"e5da4992-226c-4969-b95d-e7a2c6415b30","event_type":"ASSET_STORED","model_id":null,"payload":{"stage":"VIDEO","branch":"ai-draft","source":"slideshow","version":2,"content_hash":"931f2f9fb24c1c2ddb4f63284daa10fa8721f61c036da81d095289cc5bb31f09"},"created_at":"2026-06-15T06:34:08.498426"},{"id":"effed7c8-4747-46da-8b22-bd2725c238fd","project_id":"ba0c4636-817c-423b-9771-20100e080b76","pipeline_run_id":"e5da4992-226c-4969-b95d-e7a2c6415b30","event_type":"APPROVAL_RECORDED","model_id":null,"payload":{"note":null,"stage":"VIDEO","decision":"APPROVED","principal":"api-bearer-token","approval_id":"d84e3f46-582e-4ae8-8316-256f3e8ab620"},"created_at":"2026-06-15T06:34:34.948476"}],"total":22,"limit":20,"offset":0,"has_more":true}